[gd_scene load_steps=3 format=2]

[ext_resource path="res://RayTracer/ShaderMaterial_rayTracing.tres" type="Material" id=1]

[sub_resource type="CapsuleMesh" id=1]

[node name="MeshInstance" type="MeshInstance"]
mesh = SubResource( 1 )
material/0 = ExtResource( 1 )
